{
    "data": [
        {
            "cliente": "Nome do Cliente",
            "marca_modelo": "Fiat/Uno",
            "placa": "ASD-1235",
            "chassi": "A4S5DA6SD54AS65D6",
            "acao": "<button class='btn btn-default btn-circle'><i class='fa fa-pencil'></i></button> <button class='btn btn-default btn-circle'><i class='fa fa-trash-o'></i></button>"
        },
        {
            "cliente": "Nome do Cliente 1",
            "marca_modelo": "Honda/Biz",
            "placa": "DFG-7898",
            "chassi": "A4S5DA6SD54AS65D6",
            "acao": "<button class='btn btn-default btn-circle'><i class='fa fa-pencil'></i></button> <button class='btn btn-default btn-circle'><i class='fa fa-trash-o'></i></button>"
        },
        {
            "cliente": "Nome do Cliente 3",
            "marca_modelo": "Honda/Biz",
            "placa": "FGH-4569",
            "chassi": "A4S5DA6SD54AS65D6",
            "acao": "<button class='btn btn-default btn-circle'><i class='fa fa-pencil'></i></button> <button class='btn btn-default btn-circle'><i class='fa fa-trash-o'></i></button>"
        }
    ]}
